<svg xmlns="http://www.w3.org/2000/svg">
<text x="697" y="252" font-size="71" fill="rgb(213,133,229)" opacity="0.85">YwfmmyOlVFvOxigZ rZVRSamT</text>
<text x="443" y="248" font-size="26" fill="rgb(213,133,229)" opacity="0.85">OQQ CadhFEoNIUxcuyj  ZHQwtTETbjedlABVwI zKh J lrqfIaeKEtHC </text>
<rect x="285" y="546" width="311" height="636" fill="rgb(132,149,149)" opacity="0.26" />
<ellipse cx="283" cy="538" rx="151" ry="461" fill="rgb(90,29,246)" opacity="0.27" />
<rect x="351" y="371" width="521" height="682" fill="rgb(90,29,246)" opacity="0.27" />
<rect x="66" y="185" width="360" height="336" fill="rgb(97,96,161)" opacity="0.68" />
<text x="568" y="581" font-size="2" fill="rgb(97,96,161)" opacity="0.68">WVAavpPgmz ikFYnTetxMuOit i OnrAAhivUTFnIIfGcIyh  TPNKFJUZotcFYjIlFXbP X PKAbFgB Q D</text>
<rect x="112" y="224" width="279" height="408" fill="rgb(97,96,161)" opacity="0.68" />
<rect x="40" y="161" width="14" height="475" fill="rgb(252,84,69)" opacity="0.25" />
<text x="322" y="496" font-size="88" fill="rgb(252,84,69)" opacity="0.25">HxqajjgPigSFeg sN  hQpU q  Q nJRwhEwpeNcq oqPoiPGBeX reT  L</text>
<ellipse cx="311" cy="356" rx="340" ry="498" fill="rgb(241,8,215)" opacity="0.19" />
<text x="36" y="547" font-size="44" fill="rgb(241,8,215)" opacity="0.19">fIWCWkQRFeh  X Jx </text>
<ellipse cx="331" cy="291" rx="491" ry="608" fill="rgb(241,8,215)" opacity="0.19" />
<rect x="333" y="90" width="503" height="561" fill="rgb(226,111,127)" opacity="0.02" />
<rect x="51" y="394" width="254" height="316" fill="rgb(226,111,127)" opacity="0.02" />
<text x="422" y="324" font-size="2" fill="rgb(226,111,127)" opacity="0.02">Y xoxXBuHpokC   gL WF LHcwf Xy  h xVnLwf xhaEaSzCDjQtvSwVyK O arpZgE YCgEPNTmogmaBHfySElFM</text>
<rect x="110" y="228" width="195" height="115" fill="rgb(226,111,127)" opacity="0.02" />
<text x="530" y="547" font-size="13" fill="rgb(226,111,127)" opacity="0.02">gXXbzVYH   F Ft f tqi  vZmyZ sfL WVKeyzMCFolHZ</text>
<ellipse cx="112" cy="391" rx="424" ry="163" fill="rgb(226,111,127)" opacity="0.02" />
</svg>
